Retrieve data from NEWA v3.0 at Cornell University — newa_nrcc3 • scrappy
…
base
Base URL
(default: https://hrly.nrcc.cornell.edu/stnHrly).

    Value

List of data frames with hourly, daily,
hourly_forecast, and daily forecast (daily_forecast) data.

    Examples

scrappy::newa_nrcc3(2021, 12, 01, 00, "gbe")
#> $hourly
#> # A tibble: 10,614 × 10
#>    date                    flags prcp  temp  rhum  dwpt  lwet  wspd  wdir  srad 
#>    <chr>                   <chr> <chr> <chr> <chr> <chr> <chr> <chr> <chr> <chr>
#>  1 2021-12-01T00:00:00-05… "   … 0.00  36.3  86    32.5  0     7.1   255   0    
#>  2 2021-12-01T01:00:00-05… "   … 0.00  37.2  81    31.9  0     8.0   258   0    
#>  3 2021-12-01T02:00:00-05… "   … 0.00  37.3  81    32.0  0     6.9   262   0    
#>  4 2021-12-01T03:00:00-05… "   … 0.00  37.2  81    31.9  0     7.6   265   0    
#>  5 2021-12-01T04:00:00-05… "   … 0.00  36.8  80    31.2  0     9.7   268   0    
#>  6 2021-12-01T05:00:00-05… "   … 0.00  35.4  82    30.5  0     6.8   265   0    
#>  7 2021-12-01T06:00:00-05… "   … 0.00  33.6  82    28.7  0     5.7   267   0    
#>  8 2021-12-01T07:00:00-05… "   … 0.00  33.3  77    26.9  0     3.7   242   0    
#>  9 2021-12-01T08:00:00-05… "   … 0.00  33.5  71    25.1  0     3.3   238   1    
#> 10 2021-12-01T09:00:00-05… "   … 0.00  35.3  65    24.7  0     2.9   226   6    
#> # … with 10,604 more rows
#> 
#> $daily
#> # A tibble: 442 × 4
#>    date                      prcp  maxt  mint 
#>    <chr>                     <chr> <chr> <chr>
#>  1 2021-12-01T23:59:59-05:00 0.00  41.6  33.3 
#>  2 2021-12-02T23:59:59-05:00 0.24  52.8  35.3 
#>  3 2021-12-03T23:59:59-05:00 0.00  35.9  28.3 
#>  4 2021-12-04T23:59:59-05:00 0.00  43.2  30.7 
#>  5 2021-12-05T23:59:59-05:00 0.00  45.3  30.1 
#>  6 2021-12-06T23:59:59-05:00 0.23  49.0  31.5 
#>  7 2021-12-07T23:59:59-05:00 0.01  31.6  25.2 
#>  8 2021-12-08T23:59:59-05:00 0.02  30.6  22.8 
#>  9 2021-12-09T23:59:59-05:00 0.03  32.2  23.1 
#> 10 2021-12-10T23:59:59-05:00 0.00  46.8  32.3 
#> # … with 432 more rows
#> 
#> $hourly_forecast
#> # A tibble: 143 × 12
#>    date        flags temp  rhum  dwpt  lwet  wspd  wdir  srad  tsky  pop12 qpf  
#>    <chr>       <chr> <chr> <chr> <chr> <chr> <chr> <chr> <chr> <chr> <chr> <chr>
#>  1 2023-02-16… "   … 43.1  73    35.0  0     10    250   0     14    1     0.000
#>  2 2023-02-16… "   … 42.0  76    35.0  0     8     250   0     31    1     0.000
#>  3 2023-02-16… "   … 40.0  79    34.1  0     6     250   0     48    1     0.000
#>  4 2023-02-16… "   … 40.0  79    34.1  0     5     250   1     65    1     0.000
#>  5 2023-02-16… "   … 40.0  79    34.1  60    3     270   7     71    100   0.000
#>  6 2023-02-16… "   … 40.9  76    34.1  60    3     290   13    78    100   0.000
#>  7 2023-02-16… "   … 42.0  73    34.1  60    3     310   16    84    100   0.000
#>  8 2023-02-16… "   … 43.1  70    34.1  60    3     340   17    88    100   0.000
#>  9 2023-02-16… "   … 44.0  70    35.0  60    3     40    16    91    100   0.000
#> 10 2023-02-16… "   … 45.0  68    35.0  60    5     70    12    95    100   0.000
#> # … with 133 more rows
…
